\relax 
\providecommand\hyper@newdestlabel[2]{}
\providecommand\babel@aux[2]{}
\@nameuse{bbl@beforestart}
\catcode `"\active 
\catcode `-\active 
\providecommand\HyperFirstAtBeginDocument{\AtBeginDocument}
\HyperFirstAtBeginDocument{\ifx\hyper@anchor\@undefined
\global\let\oldcontentsline\contentsline
\gdef\contentsline#1#2#3#4{\oldcontentsline{#1}{#2}{#3}}
\global\let\oldnewlabel\newlabel
\gdef\newlabel#1#2{\newlabelxx{#1}#2}
\gdef\newlabelxx#1#2#3#4#5#6{\oldnewlabel{#1}{{#2}{#3}}}
\AtEndDocument{\ifx\hyper@anchor\@undefined
\let\contentsline\oldcontentsline
\let\newlabel\oldnewlabel
\fi}
\fi}
\global\let\hyper@last\relax 
\gdef\HyperFirstAtBeginDocument#1{#1}
\providecommand\HyField@AuxAddToFields[1]{}
\providecommand\HyField@AuxAddToCoFields[2]{}
\babel@aux{czech}{}
\@writefile{toc}{\contentsline {section}{\numberline {11}Metrické prostory}{1}{section.11}\protected@file@percent }
\@writefile{toc}{\contentsline {subsection}{\numberline {11.1}Základní vlastnosti}{1}{subsection.11.1}\protected@file@percent }
\@writefile{toc}{\contentsline {subsection}{\numberline {11.2}Konvergence v metrických prostorech}{3}{subsection.11.2}\protected@file@percent }
\@writefile{toc}{\contentsline {subsection}{\numberline {11.3}Topologické pojmy v metrických prostorech}{3}{subsection.11.3}\protected@file@percent }
\newlabel{thm:vlastnosti_uzaveru}{{11.6}{4}{vlastnosti uzávěru}{Item.38}{}}
\@writefile{toc}{\contentsline {subsection}{\numberline {11.4}Spojitá zobrazení mezi metrickými prostory}{5}{subsection.11.4}\protected@file@percent }
\newlabel{mp:spoj_ot_i}{{{{(i)}}}{6}{charakterizace spojitosti}{Item.47}{}}
\newlabel{mp:spoj_ot_ii}{{{{(ii)}}}{6}{charakterizace spojitosti}{Item.48}{}}
\newlabel{mp:spoj_ot_iii}{{{{(iii)}}}{6}{charakterizace spojitosti}{Item.49}{}}
\newlabel{mp:heine_i}{{{{(i)}}}{6}{Heineova věta}{Item.52}{}}
\newlabel{mp:heine_ii}{{{{(ii)}}}{6}{Heineova věta}{Item.53}{}}
\@writefile{toc}{\contentsline {subsection}{\numberline {11.5}Kompaktní metrické prostory}{8}{subsection.11.5}\protected@file@percent }
\newlabel{mp:zkl_vlastnosti_kompaktu}{{11.13}{8}{vlastnosti kompaktních množin}{Item.59}{}}
\newlabel{mp:komp_i}{{1}{8}{}{Item.63}{}}
\newlabel{mp:komp_ii}{{2}{8}{}{Item.64}{}}
\newlabel{mp:komp_iii}{{3}{8}{}{Item.65}{}}
\newlabel{mp:spoj_obraz_kompaktu}{{11.16}{10}{}{theorem.11.16}{}}
\@writefile{toc}{\contentsline {subsection}{\numberline {11.6}Úplné metrické prostory}{11}{subsection.11.6}\protected@file@percent }
\@writefile{toc}{\contentsline {subsection}{\numberline {11.7}prostory $L^p(X,\mu )$}{13}{subsection.11.7}\protected@file@percent }
\@writefile{toc}{\contentsline {section}{\numberline {12}Funkce více proměnných}{14}{section.12}\protected@file@percent }
\@writefile{toc}{\contentsline {subsection}{\numberline {12.1}Parciální derivace a totální diferenciál}{14}{subsection.12.1}\protected@file@percent }
\newlabel{thm:tot_diferencial_a_parci}{{12.1}{14}{vztah totálního diferenciálu a parciální derivace}{theorem.12.1}{}}
\newlabel{lem:slaby_lagrange_Rn}{{12.3}{15}{}{theorem.12.3}{}}
\newlabel{thm:totalni_diferencial_ze_spojitych_parc}{{12.4}{15}{}{theorem.12.4}{}}
\newlabel{mp:grad_i}{{{{(i)}}}{16}{}{Item.88}{}}
\newlabel{mp:grad_ii}{{{{(ii)}}}{16}{}{Item.89}{}}
\@writefile{toc}{\contentsline {paragraph}{Připomenutí z LA}{16}{section*.1}\protected@file@percent }
\newlabel{thm:derivace_ze_spojitosti_parcialnich}{{12.8}{17}{}{theorem.12.8}{}}
\newlabel{lem:lokalni_lipschitz_s_derivaci}{{12.10}{18}{}{theorem.12.10}{}}
\newlabel{thm:derivace_sloz_zobrazeni}{{12.11}{18}{derivace složeného zobrazení}{theorem.12.11}{}}
\newlabel{eq:sloz_1}{{1}{18}{Připomenutí z LA}{equation.12.1}{}}
\newlabel{eq:sloz_2}{{2}{18}{Připomenutí z LA}{equation.12.2}{}}
\newlabel{eq:sloz_3}{{3}{18}{Připomenutí z LA}{equation.12.3}{}}
\newlabel{eq:sloz_4}{{4}{18}{Připomenutí z LA}{equation.12.4}{}}
\newlabel{thm:retizkove_pavidlo}{{12.12}{18}{řetízkové pravidlo}{theorem.12.12}{}}
\newlabel{thm:o_prirustku_funkce}{{12.13}{19}{o přírustku funkce}{theorem.12.13}{}}
\@writefile{toc}{\contentsline {subsection}{\numberline {12.2}Derivace vyšších řádů}{20}{subsection.12.2}\protected@file@percent }
\newlabel{thm:hladkost_slozeni}{{12.15}{20}{}{theorem.12.15}{}}
\newlabel{eq:komu_parc_i}{{5}{21}{Derivace vyšších řádů}{equation.12.5}{}}
\newlabel{eq:komu_parc_ii}{{6}{21}{Derivace vyšších řádů}{equation.12.6}{}}
\@writefile{toc}{\contentsline {paragraph}{Zavedení vyšších derivací}{23}{section*.8}\protected@file@percent }
\@writefile{toc}{\contentsline {subsection}{\numberline {12.3}Věty o implicitně zadaných funkcích}{26}{subsection.12.3}\protected@file@percent }
\newlabel{eq:implic_i}{{7}{26}{Věty o implicitně zadaných funkcích}{equation.12.7}{}}
\newlabel{eq:implic_ii}{{8}{26}{Věty o implicitně zadaných funkcích}{equation.12.8}{}}
\newlabel{thm:o_implicitnich_funkcich}{{12.23}{27}{o implicitně zadaných funkcích}{Item.116}{}}
\@writefile{toc}{\contentsline {subsection}{\numberline {12.4}Taylorův polynom funkcí více proměnných}{28}{subsection.12.4}\protected@file@percent }
\newlabel{thm:lagrange_tvar_zbytku_rn}{{12.24}{28}{Lagrangeův tvar zbytku}{theorem.12.24}{}}
\newlabel{eq:lagrange_taylor_Rn}{{9}{28}{Taylorův polynom funkcí více proměnných}{equation.12.9}{}}
\newlabel{thm:peano_tvar_zbytku_Rn}{{12.25}{28}{Peanův tvar zbytku}{theorem.12.25}{}}
\@writefile{toc}{\contentsline {subsection}{\numberline {12.5}Extrémy funkcí více proměnných}{29}{subsection.12.5}\protected@file@percent }
\newlabel{lem:min_pd_kvadriky}{{12.27}{29}{}{theorem.12.27}{}}
\newlabel{eq:lagr_mult_i}{{10}{31}{Extrémy funkcí více proměnných}{equation.12.10}{}}
\newlabel{eq:lagr_mult_ii}{{11}{31}{Extrémy funkcí více proměnných}{equation.12.11}{}}
\@writefile{toc}{\contentsline {subsection}{\numberline {12.6}Regulární zobrazení}{31}{subsection.12.6}\protected@file@percent }
\newlabel{rg:def_dife_i}{{{{(i)}}}{31}{}{Item.125}{}}
\newlabel{rg:def_dife_ii}{{{{(ii)}}}{31}{}{Item.126}{}}
\newlabel{rg:def_dife_iii}{{{{(iii)}}}{31}{}{Item.127}{}}
\newlabel{rg:def_dife_iv}{{{{(iv)}}}{31}{}{Item.128}{}}
\newlabel{thm:o_lokalnim_difeomorfismu}{{12.30}{31}{o lokálním difeomorfismu}{theorem.12.30}{}}
\@writefile{toc}{\contentsline {subsection}{\numberline {12.7}Derivace a konvexita}{32}{subsection.12.7}\protected@file@percent }
\gdef \@abspage@last{32}
